<?xml version="1.0" encoding="UTF-8" standalone="no"?>
<!-- Created with Inkscape (http://www.inkscape.org/) -->
<svg
   xmlns:svg="http://www.w3.org/2000/svg"
   xmlns="http://www.w3.org/2000/svg"
   version="1.0"
   width="500"
   height="500"
   id="svg2">
  <defs
     id="defs4" />
  <g
     transform="translate(-137.38255,-243.73254)"
     id="layer1">
    <path
       d="M 267.76161,734.95706 C 217.17736,733.33715 217.17736,733.33715 218.82197,656.756 C 219.7265,614.63636 222.67379,559.40711 225.37151,534.0243 C 228.06924,508.64151 230.27647,477.15173 230.27647,464.04696 C 230.27647,441.28274 229.86605,440.59163 221.07326,448.54897 C 216.0115,453.12982 209.67378,456.87776 206.98944,456.87776 C 189.03334,456.87776 129.88745,373.21025 138.17151,359.52825 C 145.04099,348.1826 182.86646,309.51462 210.93719,285.14185 C 236.67679,262.79317 243.76496,259.49132 284.85079,250.71127 C 318.4409,243.53305 334.63469,242.24468 346.93338,245.77188 C 368.67863,252.00834 434.70761,251.91631 446.4477,245.63318 C 452.76464,242.25248 467.74474,243.35304 494.53005,249.16567 C 533.43683,257.60875 533.43683,257.60875 561.61354,293.07846 C 577.1108,312.58678 600.91292,341.65198 614.50721,357.66782 C 628.10149,373.68361 638.36268,387.44881 637.30983,388.25708 C 636.25697,389.06536 626.73552,396.17377 616.15104,404.0535 C 604.63041,412.63021 590.86431,430.34996 581.85195,448.20338 C 561.78741,487.95094 567.03236,491.17045 587.94131,451.94125 C 604.73599,420.43129 633.4309,390.59338 636.90788,401.02428 C 639.47095,408.71353 625.45533,429.51838 594.45996,464.03418 C 568.62194,492.80684 568.62194,492.80684 550.12949,473.76574 C 535.49298,458.69505 530.71902,456.20999 527.23459,461.84789 C 518.88294,475.36116 515.88733,543.48472 519.50255,637.6833 C 523.1287,732.16678 523.1287,732.16678 499.29733,735.43324 C 476.39753,738.57203 374.07031,738.36158 267.76161,734.95706 z M 479.38695,728.63464 C 473.85117,726.25582 426.29371,724.4905 373.70371,724.71169 C 317.55648,724.94781 287.43394,726.56723 300.73196,728.63464 C 334.17704,733.83436 491.48728,733.83436 479.38695,728.63464 z M 509.79141,723.9407 C 508.19585,721.35901 494.31989,716.63713 478.95602,713.44757 C 442.97118,705.97716 241.94623,708.58412 228.22167,716.69918 C 220.97769,720.98242 248.79887,721.82779 341.45371,720.13982 C 441.95723,718.30889 489.89972,720.5532 511.13731,728.08323 C 511.99259,728.38654 511.38698,726.52234 509.79141,723.9407 z M 515.05731,599.04687 C 514.81389,533.30938 516.47276,470.728 518.74374,459.97715 C 522.87284,440.43013 522.87284,440.43013 542.29257,459.39302 C 561.71238,478.35592 561.71238,478.35592 576.68675,445.33066 C 587.36796,421.77377 596.83043,408.95575 609.69163,400.62197 C 619.60838,394.19608 627.75018,387.44538 627.78445,385.62039 C 627.81872,383.79539 614.21099,365.98177 597.54505,346.03457 C 580.87911,326.08731 560.09909,299.81869 551.36729,287.65983 C 535.8297,266.02411 531.93351,263.94895 486.1068,252.90107 C 473.96087,249.97294 471.75144,251.80453 462.673,272.32791 C 448.92935,303.39772 432.25148,313.26542 393.30942,313.36788 C 369.37853,313.43084 358.50595,310.96756 347.66914,303.02774 C 335.84741,294.36624 320.33981,271.48999 314.5123,254.11597 C 313.08945,249.87395 266.54904,257.96344 245.03381,266.1925 C 237.92692,268.91067 213.32419,290.0208 190.36106,313.10383 C 158.91854,344.71056 149.68333,356.97092 152.95732,362.75984 C 155.34839,366.98763 171.54638,385.25971 188.95288,403.36445 C 210.96039,426.25484 223.07429,435.33313 228.72022,433.16657 C 236.00434,430.3714 236.50213,435.70075 233.56018,484.98276 C 231.75661,515.19528 228.8103,578.81472 227.01282,626.35929 C 223.74467,712.804 223.74467,712.804 245.88257,707.31632 C 258.13178,704.2799 311.85579,701.8689 366.15491,701.91883 C 439.39823,701.98622 470.67171,703.95092 489.45203,709.66476 C 503.2915,713.87537 514.81389,717.60147 515.05731,717.94498 C 515.30078,718.28851 515.30078,664.78436 515.05731,599.04687 z M 623.61429,419.13375 C 629.30956,409.07175 629.30785,409.07175 617.99873,419.12187 C 611.7768,424.65112 603.33624,435.97433 599.24193,444.28454 C 591.79774,459.39403 591.79774,459.39403 604.85753,444.29642 C 612.04036,435.99274 620.48093,424.66954 623.61429,419.13375 z M 215.17886,441.99399 C 215.17886,439.34371 201.97187,424.05738 185.83001,408.02437 C 169.68814,391.99138 154.00551,374.36306 150.97972,368.85032 C 147.95393,363.33758 144.23609,360.06935 142.71786,361.58762 C 141.19963,363.10583 146.02541,373.27784 153.44182,384.1921 C 160.85825,395.10631 166.34526,405.16846 165.63519,406.55241 C 163.45603,410.79972 190.80391,442.66996 193.93818,439.53569 C 195.55453,437.91935 189.22747,428.70452 179.87804,419.05837 C 170.52862,409.4122 165.35336,401.51988 168.3775,401.51988 C 174.82799,401.51988 205.11379,434.85528 205.11379,441.95529 C 205.11379,444.62686 207.37843,446.81269 210.14633,446.81269 C 212.91422,446.81269 215.17886,444.64427 215.17886,441.99399 z M 432.99675,300.45349 C 440.60131,296.98864 450.96753,285.11568 456.66627,273.34362 C 468.14789,249.62584 468.90283,245.5113 461.77308,245.5113 C 459.00519,245.5113 456.74055,250.26704 456.74055,256.07962 C 456.74055,261.89219 449.04077,274.34772 439.62993,283.75856 C 424.34526,299.04323 419.58423,300.86918 395.0158,300.86918 C 363.13503,300.86918 346.4427,290.57498 331.03698,261.4132 C 325.68545,251.28321 321.30177,246.39199 321.29546,250.54383 C 321.27265,265.54637 339.86893,292.49323 356.60387,301.70735 C 375.37364,312.04181 408.76604,311.49376 432.99675,300.45349 z M 430.31973,285.82673 C 439.3154,280.34198 446.67548,272.66499 446.67548,268.76679 C 446.67548,262.9831 442.91411,262.63385 426.23115,266.86841 C 411.94444,270.49481 395.72055,270.38968 372.36462,266.51951 C 353.98238,263.47347 337.99545,261.92818 336.83809,263.08551 C 335.68075,264.2429 341.62937,272.08534 350.05724,280.51323 C 362.90916,293.36511 369.29867,295.83363 389.67233,295.81783 C 405.00301,295.80594 419.9975,292.12032 430.31973,285.82673 z M 426.54533,260.36215 C 435.03,257.47846 430.9333,257.03243 413.96399,258.99235 C 400.12453,260.59073 387.85772,262.74068 386.70443,263.76999 C 382.7416,267.30675 413.97204,264.63543 426.54533,260.36215 z M 372.44558,257.27596 C 368.98571,255.87988 363.32411,255.87988 359.86424,257.27596 C 356.40437,258.67203 359.23518,259.81431 366.15491,259.81431 C 373.07464,259.81431 375.90545,258.67203 372.44558,257.27596 z"
       id="path2576"
       style="fill:#000000" />
  </g>
</svg>
